EESchema Schematic File Version 4
EELAYER 30 0
EELAYER END
$Descr A4 11693 8268
encoding utf-8
Sheet 1 1
Title "Joystick Node"
Date "2020-02-01"
Rev "0.9"
Comp "gbiloba"
Comment1 "By Fred"
Comment2 ""
Comment3 ""
Comment4 ""
$EndDescr
$Comp
L power:GND #PWR0101
U 1 1 5C94A443
P 6900 4550
F 0 "#PWR0101" H 6900 4300 50  0001 C CNN
F 1 "GND" H 6905 4377 50  0000 C CNN
F 2 "" H 6900 4550 50  0001 C CNN
F 3 "" H 6900 4550 50  0001 C CNN
	1    6900 4550
	1    0    0    -1  
$EndComp
$Comp
L power:+3.3V #PWR0102
U 1 1 5C94A47D
P 6900 2550
F 0 "#PWR0102" H 6900 2400 50  0001 C CNN
F 1 "+3.3V" H 6915 2723 50  0000 C CNN
F 2 "" H 6900 2550 50  0001 C CNN
F 3 "" H 6900 2550 50  0001 C CNN
	1    6900 2550
	1    0    0    -1  
$EndComp
$Comp
L power:+3.3V #PWR0103
U 1 1 5C94A491
P 4400 3700
F 0 "#PWR0103" H 4400 3550 50  0001 C CNN
F 1 "+3.3V" H 4415 3873 50  0000 C CNN
F 2 "" H 4400 3700 50  0001 C CNN
F 3 "" H 4400 3700 50  0001 C CNN
	1    4400 3700
	1    0    0    -1  
$EndComp
$Comp
L power:GND #PWR0104
U 1 1 5C94A49E
P 4800 3800
F 0 "#PWR0104" H 4800 3550 50  0001 C CNN
F 1 "GND" H 4805 3627 50  0000 C CNN
F 2 "" H 4800 3800 50  0001 C CNN
F 3 "" H 4800 3800 50  0001 C CNN
	1    4800 3800
	1    0    0    -1  
$EndComp
$Comp
L power:PWR_FLAG #FLG0101
U 1 1 5C94A4C3
P 4800 3700
F 0 "#FLG0101" H 4800 3775 50  0001 C CNN
F 1 "PWR_FLAG" H 4800 3874 50  0000 C CNN
F 2 "" H 4800 3700 50  0001 C CNN
F 3 "~" H 4800 3700 50  0001 C CNN
	1    4800 3700
	1    0    0    -1  
$EndComp
$Comp
L power:PWR_FLAG #FLG0102
U 1 1 5C94A4D7
P 4400 3800
F 0 "#FLG0102" H 4400 3875 50  0001 C CNN
F 1 "PWR_FLAG" H 4400 3973 50  0000 C CNN
F 2 "" H 4400 3800 50  0001 C CNN
F 3 "~" H 4400 3800 50  0001 C CNN
	1    4400 3800
	-1   0    0    1   
$EndComp
Wire Wire Line
	4400 3700 4400 3800
Wire Wire Line
	4800 3700 4800 3800
$Comp
L power:GND #PWR0105
U 1 1 5C94BB4A
P 5650 3550
F 0 "#PWR0105" H 5650 3300 50  0001 C CNN
F 1 "GND" H 5655 3377 50  0000 C CNN
F 2 "" H 5650 3550 50  0001 C CNN
F 3 "" H 5650 3550 50  0001 C CNN
	1    5650 3550
	1    0    0    -1  
$EndComp
$Comp
L power:+3.3V #PWR0106
U 1 1 5C94BB65
P 5650 2550
F 0 "#PWR0106" H 5650 2400 50  0001 C CNN
F 1 "+3.3V" H 5665 2723 50  0000 C CNN
F 2 "" H 5650 2550 50  0001 C CNN
F 3 "" H 5650 2550 50  0001 C CNN
	1    5650 2550
	1    0    0    -1  
$EndComp
Wire Wire Line
	5550 2850 5650 2850
Wire Wire Line
	5550 3050 5650 3050
Text Label 6050 2850 2    50   ~ 0
SDA_MOSI
Text Label 6050 3050 2    50   ~ 0
SCL_SCK
Text Label 7900 3050 2    50   ~ 0
ADC1
Text Label 7900 3150 2    50   ~ 0
ADC2
Text Label 7900 3250 2    50   ~ 0
ADC3
Text Label 7900 4050 2    50   ~ 0
IO3
$Comp
L Connector:Conn_01x08_Male J10
U 1 1 5C94B006
P 5350 3050
F 0 "J10" H 5450 2500 50  0000 C CNN
F 1 "I²C" H 5450 3450 50  0000 C CNN
F 2 "Connector_PinHeader_2.54mm:PinHeader_2x04_P2.54mm_Horizontal" H 5350 3050 50  0001 C CNN
F 3 "~" H 5350 3050 50  0001 C CNN
	1    5350 3050
	1    0    0    1   
$EndComp
Wire Wire Line
	5650 2550 5650 2650
Wire Wire Line
	5550 2650 5650 2650
Connection ~ 5650 2650
Wire Wire Line
	5650 2650 5650 2750
Wire Wire Line
	5550 2750 5650 2750
Wire Wire Line
	5650 3250 5650 3350
Connection ~ 5650 3350
Wire Wire Line
	5550 2950 5650 2950
Wire Wire Line
	5650 2950 5650 2850
Connection ~ 5650 2850
Wire Wire Line
	5550 3150 5650 3150
Wire Wire Line
	5650 3150 5650 3050
Connection ~ 5650 3050
Wire Wire Line
	5550 3250 5650 3250
Wire Wire Line
	5550 3350 5650 3350
$Comp
L Joystick_Node-rescue:ATtiny841-SSU-MCU_Microchip_ATtiny U1
U 1 1 5C9A3AEB
P 6900 3550
F 0 "U1" H 6500 4400 50  0000 R CNN
F 1 "ATtiny841-SSU" H 7500 4400 50  0000 R CNN
F 2 "Package_SO:SOIC-14_3.9x8.7mm_P1.27mm" H 6900 3550 50  0001 C CIN
F 3 "http://ww1.microchip.com/downloads/en/DeviceDoc/Atmel-8495-8-bit-AVR-Microcontrollers-ATtiny441-ATtiny841_Datasheet.pdf" H 6900 3550 50  0001 C CNN
	1    6900 3550
	1    0    0    -1  
$EndComp
$Comp
L Device:C C1
U 1 1 5C9AF236
P 4800 2850
F 0 "C1" H 4850 2950 50  0000 L CNN
F 1 "0.1nF" H 4850 2750 50  0000 L CNN
F 2 "Capacitor_SMD:C_1206_3216Metric_Pad1.42x1.75mm_HandSolder" H 4838 2700 50  0001 C CNN
F 3 "~" H 4800 2850 50  0001 C CNN
	1    4800 2850
	1    0    0    -1  
$EndComp
$Comp
L Connector_Generic:Conn_02x03_Odd_Even J11
U 1 1 5C9DDA3C
P 5300 4500
F 0 "J11" H 5350 4700 50  0000 C CNN
F 1 "ISP" H 5350 4300 50  0000 C CNN
F 2 "Connector_PinHeader_2.54mm:PinHeader_2x03_P2.54mm_Vertical" H 5300 4500 50  0001 C CNN
F 3 "~" H 5300 4500 50  0001 C CNN
	1    5300 4500
	1    0    0    -1  
$EndComp
Wire Wire Line
	5650 3350 5650 3550
Wire Wire Line
	5100 4400 4700 4400
$Comp
L power:GND #PWR0109
U 1 1 5CA3408E
P 5650 4650
F 0 "#PWR0109" H 5650 4400 50  0001 C CNN
F 1 "GND" H 5655 4477 50  0000 C CNN
F 2 "" H 5650 4650 50  0001 C CNN
F 3 "" H 5650 4650 50  0001 C CNN
	1    5650 4650
	1    0    0    -1  
$EndComp
Wire Wire Line
	5600 4600 5650 4600
Wire Wire Line
	5650 4600 5650 4650
$Comp
L power:+3.3V #PWR0110
U 1 1 5CA37E84
P 5650 4150
F 0 "#PWR0110" H 5650 4000 50  0001 C CNN
F 1 "+3.3V" H 5665 4323 50  0000 C CNN
F 2 "" H 5650 4150 50  0001 C CNN
F 3 "" H 5650 4150 50  0001 C CNN
	1    5650 4150
	1    0    0    -1  
$EndComp
Wire Wire Line
	5600 4400 5650 4400
Wire Wire Line
	5650 4400 5650 4200
Wire Wire Line
	4700 4500 5100 4500
Text Label 7900 3950 2    50   ~ 0
IO2
Wire Wire Line
	6900 2550 6900 2650
Wire Wire Line
	6900 4450 6900 4550
$Comp
L power:+3.3V #PWR0112
U 1 1 5CAEEB62
P 4800 2650
F 0 "#PWR0112" H 4800 2500 50  0001 C CNN
F 1 "+3.3V" H 4815 2823 50  0000 C CNN
F 2 "" H 4800 2650 50  0001 C CNN
F 3 "" H 4800 2650 50  0001 C CNN
	1    4800 2650
	1    0    0    -1  
$EndComp
$Comp
L power:GND #PWR0113
U 1 1 5CAEEB89
P 4800 3050
F 0 "#PWR0113" H 4800 2800 50  0001 C CNN
F 1 "GND" H 4805 2877 50  0000 C CNN
F 2 "" H 4800 3050 50  0001 C CNN
F 3 "" H 4800 3050 50  0001 C CNN
	1    4800 3050
	1    0    0    -1  
$EndComp
Wire Wire Line
	4800 3000 4800 3050
Wire Wire Line
	4800 2650 4800 2700
Text Label 7900 3850 2    50   ~ 0
IO1
NoConn ~ 5550 900 
Text Label 4700 4600 0    50   ~ 0
RST
Text Label 6100 4500 2    50   ~ 0
SDA_MOSI
Wire Wire Line
	5600 4500 6100 4500
Text Label 7900 4150 2    50   ~ 0
RST
Wire Wire Line
	7500 3050 7900 3050
Wire Wire Line
	7500 3150 7900 3150
Wire Wire Line
	7500 3250 7900 3250
Wire Wire Line
	7500 3350 7900 3350
Wire Wire Line
	7500 3450 7900 3450
Wire Wire Line
	7500 3550 7900 3550
Wire Wire Line
	7500 3850 7900 3850
Wire Wire Line
	7500 3950 7900 3950
Wire Wire Line
	7500 4050 7900 4050
Wire Wire Line
	7500 4150 7900 4150
Wire Wire Line
	7500 2950 7900 2950
Wire Wire Line
	7500 3650 7900 3650
Text Label 7900 3650 2    50   ~ 0
IO0
Text Label 7900 2950 2    50   ~ 0
ADC0
Wire Wire Line
	5650 3050 6050 3050
Wire Wire Line
	5650 2850 6050 2850
$Comp
L Device:R R1
U 1 1 5CACC29C
P 4450 4400
F 0 "R1" H 4520 4446 50  0000 L CNN
F 1 "10k" H 4520 4355 50  0000 L CNN
F 2 "Resistor_SMD:R_1206_3216Metric_Pad1.42x1.75mm_HandSolder" V 4380 4400 50  0001 C CNN
F 3 "~" H 4450 4400 50  0001 C CNN
	1    4450 4400
	1    0    0    -1  
$EndComp
Wire Wire Line
	4450 4250 4450 4200
Wire Wire Line
	4450 4200 5650 4200
Connection ~ 5650 4200
Wire Wire Line
	5650 4200 5650 4150
Wire Wire Line
	4450 4600 4450 4550
Wire Wire Line
	4450 4600 5100 4600
Text Label 7900 3450 2    50   ~ 0
MISO
Text Label 7900 3550 2    50   ~ 0
SDA_MOSI
Text Label 4700 4400 0    50   ~ 0
MISO
Text Label 7900 3350 2    50   ~ 0
SCL_SCK
Text Label 4700 4500 0    50   ~ 0
SCL_SCK
$Comp
L power:+3.3V #PWR0107
U 1 1 5E3CF33F
P 8500 2200
F 0 "#PWR0107" H 8500 2050 50  0001 C CNN
F 1 "+3.3V" H 8515 2373 50  0000 C CNN
F 2 "" H 8500 2200 50  0001 C CNN
F 3 "" H 8500 2200 50  0001 C CNN
	1    8500 2200
	1    0    0    -1  
$EndComp
$Comp
L power:GND #PWR0108
U 1 1 5E3D2125
P 8600 5350
F 0 "#PWR0108" H 8600 5100 50  0001 C CNN
F 1 "GND" H 8605 5177 50  0000 C CNN
F 2 "" H 8600 5350 50  0001 C CNN
F 3 "" H 8600 5350 50  0001 C CNN
	1    8600 5350
	1    0    0    -1  
$EndComp
Wire Wire Line
	8750 2900 8500 2900
Wire Wire Line
	8750 3350 8500 3350
Wire Wire Line
	8750 2350 8250 2350
Wire Wire Line
	8750 2800 8250 2800
Wire Wire Line
	8750 3250 8250 3250
Text Label 8250 2350 0    50   ~ 0
ADC0
Text Label 8250 2800 0    50   ~ 0
ADC1
Text Label 8250 3250 0    50   ~ 0
ADC2
Wire Wire Line
	8750 3800 8500 3800
Wire Wire Line
	8250 3700 8750 3700
Text Label 8250 3700 0    50   ~ 0
ADC3
$Comp
L Connector_Generic:Conn_01x03 J1
U 1 1 5E69FC3C
P 8950 2350
F 0 "J1" H 9030 2346 50  0000 L CNN
F 1 "Conn_01x03" H 9030 2301 50  0001 L CNN
F 2 "Connector_PinHeader_2.54mm:PinHeader_1x03_P2.54mm_Vertical" H 8950 2350 50  0001 C CNN
F 3 "~" H 8950 2350 50  0001 C CNN
	1    8950 2350
	1    0    0    -1  
$EndComp
$Comp
L Connector_Generic:Conn_01x03 J2
U 1 1 5E6A02A7
P 8950 2800
F 0 "J2" H 9030 2796 50  0000 L CNN
F 1 "Conn_01x03" H 9030 2751 50  0001 L CNN
F 2 "Connector_PinHeader_2.54mm:PinHeader_1x03_P2.54mm_Vertical" H 8950 2800 50  0001 C CNN
F 3 "~" H 8950 2800 50  0001 C CNN
	1    8950 2800
	1    0    0    -1  
$EndComp
$Comp
L Connector_Generic:Conn_01x03 J3
U 1 1 5E6A06EA
P 8950 3250
F 0 "J3" H 9030 3246 50  0000 L CNN
F 1 "Conn_01x03" H 9030 3201 50  0001 L CNN
F 2 "Connector_PinHeader_2.54mm:PinHeader_1x03_P2.54mm_Vertical" H 8950 3250 50  0001 C CNN
F 3 "~" H 8950 3250 50  0001 C CNN
	1    8950 3250
	1    0    0    -1  
$EndComp
$Comp
L Connector_Generic:Conn_01x03 J4
U 1 1 5E6A09F7
P 8950 3700
F 0 "J4" H 9030 3696 50  0000 L CNN
F 1 "Conn_01x03" H 9030 3651 50  0001 L CNN
F 2 "Connector_PinHeader_2.54mm:PinHeader_1x03_P2.54mm_Vertical" H 8950 3700 50  0001 C CNN
F 3 "~" H 8950 3700 50  0001 C CNN
	1    8950 3700
	1    0    0    -1  
$EndComp
$Comp
L Connector_Generic:Conn_01x02 J5
U 1 1 5E6A5909
P 8950 4050
F 0 "J5" H 9030 3996 50  0000 L CNN
F 1 "Conn_01x02" H 9030 3951 50  0001 L CNN
F 2 "Connector_PinHeader_2.54mm:PinHeader_1x02_P2.54mm_Vertical" H 8950 4050 50  0001 C CNN
F 3 "~" H 8950 4050 50  0001 C CNN
	1    8950 4050
	1    0    0    -1  
$EndComp
$Comp
L Connector_Generic:Conn_01x02 J6
U 1 1 5E6A6073
P 8950 4400
F 0 "J6" H 9030 4346 50  0000 L CNN
F 1 "Conn_01x02" H 9030 4301 50  0001 L CNN
F 2 "Connector_PinHeader_2.54mm:PinHeader_1x02_P2.54mm_Vertical" H 8950 4400 50  0001 C CNN
F 3 "~" H 8950 4400 50  0001 C CNN
	1    8950 4400
	1    0    0    -1  
$EndComp
$Comp
L Connector_Generic:Conn_01x02 J7
U 1 1 5E6A645C
P 8950 4750
F 0 "J7" H 9030 4696 50  0000 L CNN
F 1 "Conn_01x02" H 9030 4651 50  0001 L CNN
F 2 "Connector_PinHeader_2.54mm:PinHeader_1x02_P2.54mm_Vertical" H 8950 4750 50  0001 C CNN
F 3 "~" H 8950 4750 50  0001 C CNN
	1    8950 4750
	1    0    0    -1  
$EndComp
Wire Wire Line
	8750 4150 8250 4150
Wire Wire Line
	8750 4500 8250 4500
Wire Wire Line
	8750 4850 8250 4850
$Comp
L Mechanical:MountingHole H1
U 1 1 5E6BE0E4
P 6200 4950
F 0 "H1" H 6300 4950 50  0000 L CNN
F 1 "MountingHole" H 6300 4905 50  0001 L CNN
F 2 "MountingHole:MountingHole_2.5mm" H 6200 4950 50  0001 C CNN
F 3 "~" H 6200 4950 50  0001 C CNN
	1    6200 4950
	1    0    0    -1  
$EndComp
$Comp
L Mechanical:MountingHole H2
U 1 1 5E6BEA14
P 6550 4950
F 0 "H2" H 6650 4950 50  0000 L CNN
F 1 "MountingHole" H 6650 4905 50  0001 L CNN
F 2 "MountingHole:MountingHole_2.5mm" H 6550 4950 50  0001 C CNN
F 3 "~" H 6550 4950 50  0001 C CNN
	1    6550 4950
	1    0    0    -1  
$EndComp
$Comp
L Mechanical:MountingHole H3
U 1 1 5E6BED42
P 6900 4950
F 0 "H3" H 7000 4950 50  0000 L CNN
F 1 "MountingHole" H 7000 4905 50  0001 L CNN
F 2 "MountingHole:MountingHole_2.5mm" H 6900 4950 50  0001 C CNN
F 3 "~" H 6900 4950 50  0001 C CNN
	1    6900 4950
	1    0    0    -1  
$EndComp
$Comp
L Mechanical:MountingHole H4
U 1 1 5E6BF019
P 7250 4950
F 0 "H4" H 7350 4950 50  0000 L CNN
F 1 "MountingHole" H 7350 4905 50  0001 L CNN
F 2 "MountingHole:MountingHole_2.5mm" H 7250 4950 50  0001 C CNN
F 3 "~" H 7250 4950 50  0001 C CNN
	1    7250 4950
	1    0    0    -1  
$EndComp
$Comp
L Connector_Generic:Conn_01x02 J8
U 1 1 5E6E257F
P 8950 5100
F 0 "J8" H 9030 5046 50  0000 L CNN
F 1 "Conn_01x02" H 9030 5001 50  0001 L CNN
F 2 "Connector_PinHeader_2.54mm:PinHeader_1x02_P2.54mm_Vertical" H 8950 5100 50  0001 C CNN
F 3 "~" H 8950 5100 50  0001 C CNN
	1    8950 5100
	1    0    0    -1  
$EndComp
Wire Wire Line
	8750 5200 8250 5200
Text Label 8250 4150 0    50   ~ 0
IO0
Text Label 8250 4500 0    50   ~ 0
IO1
Text Label 8250 4850 0    50   ~ 0
IO2
Text Label 8250 5200 0    50   ~ 0
IO3
Wire Wire Line
	8500 2200 8500 2450
Wire Wire Line
	8600 2250 8600 2700
Connection ~ 8500 3350
Wire Wire Line
	8500 3350 8500 3800
Connection ~ 8500 2900
Wire Wire Line
	8500 2900 8500 3350
Wire Wire Line
	8750 2450 8500 2450
Connection ~ 8500 2450
Wire Wire Line
	8500 2450 8500 2900
Wire Wire Line
	8750 2250 8600 2250
Wire Wire Line
	8750 2700 8600 2700
Connection ~ 8600 2700
Wire Wire Line
	8600 2700 8600 3150
Wire Wire Line
	8750 3150 8600 3150
Connection ~ 8600 3150
Wire Wire Line
	8600 3150 8600 3600
Wire Wire Line
	8750 3600 8600 3600
Connection ~ 8600 3600
Wire Wire Line
	8600 3600 8600 4050
Wire Wire Line
	8750 4050 8600 4050
Connection ~ 8600 4050
Wire Wire Line
	8600 4050 8600 4400
Wire Wire Line
	8750 4400 8600 4400
Connection ~ 8600 4400
Wire Wire Line
	8600 4400 8600 4750
Wire Wire Line
	8750 4750 8600 4750
Connection ~ 8600 4750
Wire Wire Line
	8600 4750 8600 5100
Wire Wire Line
	8750 5100 8600 5100
Connection ~ 8600 5100
Wire Wire Line
	8600 5100 8600 5350
$EndSCHEMATC
